{
  "": [
    "0",
    "1",
    "2",
    "3",
    "4",
    "5",
    "6",
    "7",
    "8",
    "9",
    "10",
    "11",
    "12",
    "13",
    "14",
    "15",
    "16",
    "17",
    "18",
    "19",
    "20",
    "21",
    "22",
    "23",
    "24",
    "25",
    "26",
    "27",
    "28",
    "29",
    "30",
    "31",
    "32",
    "33",
    "34",
    "35",
    "36",
    "37",
    "38",
    "39",
    "40",
    "41",
    "42",
    "43",
    "44",
    "45",
    "46",
    "47",
    "48",
    "49",
    "50",
    "51",
    "52",
    "53",
    "54",
    "55",
    "56",
    "57",
    "58",
    "59",
    "60",
    "61",
    "62",
    "63",
    "64",
    "65",
    "66",
    "67",
    "68",
    "69",
    "70",
    "71",
    "72",
    "73",
    "74",
    "75",
    "76",
    "77",
    "78",
    "79",
    "80",
    "81",
    "82",
    "83",
    "84",
    "85",
    "86",
    "87",
    "88",
    "89",
    "90",
    "91",
    "92",
    "93",
    "94",
    "95",
    "96",
    "97",
    "98",
    "99",
    "100",
    "101",
    "102",
    "103",
    "104",
    "105",
    "106",
    "107",
    "108",
    "109",
    "110",
    "111",
    "112",
    "113",
    "114",
    "115",
    "116",
    "117",
    "118",
    "119",
    "120",
    "121",
    "122",
    "123",
    "124",
    "125",
    "126",
    "127",
    "128",
    "129",
    "130",
    "131",
    "132",
    "133",
    "134",
    "135",
    "136",
    "137",
    "138",
    "139",
    "140",
    "141",
    "142",
    "143",
    "144",
    "145",
    "146",
    "147",
    "148",
    "149",
    "150",
    "151",
    "152",
    "153",
    "154",
    "155",
    "156",
    "157",
    "158",
    "159",
    "160",
    "161",
    "162",
    "163",
    "164",
    "165",
    "166",
    "167",
    "168",
    "169",
    "170",
    "171",
    "172",
    "173",
    "174",
    "175",
    "176",
    "177",
    "178",
    "179",
    "180",
    "181",
    "182",
    "183",
    "184",
    "185",
    "186",
    "187",
    "188",
    "189",
    "190",
    "191",
    "192",
    "193",
    "194",
    "195",
    "196",
    "197",
    "198",
    "199",
    "200",
    "201",
    "202",
    "203",
    "204",
    "205",
    "206",
    "207",
    "208",
    "209",
    "210",
    "211",
    "212",
    "213",
    "214",
    "215",
    "216",
    "217",
    "218",
    "219",
    "220",
    "221",
    "222",
    "223",
    "224",
    "225",
    "226",
    "227",
    "228",
    "229",
    "230",
    "231",
    "232",
    "233",
    "234",
    "235",
    "236",
    "237",
    "238",
    "239",
    "240",
    "241",
    "242",
    "243",
    "244",
    "245",
    "246",
    "247",
    "248",
    "249",
    "250",
    "251",
    "252",
    "253",
    "254",
    "255",
    "256",
    "257",
    "258",
    "259",
    "260",
    "261",
    "262",
    "263",
    "264",
    "265",
    "266",
    "267",
    "268",
    "269",
    "270",
    "271",
    "272",
    "273",
    "274",
    "275",
    "276",
    "277",
    "278",
    "279",
    "280",
    "281",
    "282",
    "283",
    "284",
    "285",
    "286",
    "287",
    "288",
    "289",
    "290",
    "291",
    "292",
    "293",
    "294",
    "295",
    "296",
    "297",
    "298",
    "299",
    "300",
    "301",
    "302",
    "303",
    "304",
    "305",
    "306",
    "307",
    "308",
    "309",
    "310",
    "311",
    "312",
    "313",
    "314",
    "315",
    "316",
    "317",
    "318",
    "319",
    "320",
    "321",
    "322",
    "323",
    "324",
    "325",
    "326",
    "327",
    "328",
    "329",
    "330",
    "331",
    "332",
    "333",
    "334",
    "335",
    "336",
    "337",
    "338",
    "339",
    "340",
    "341",
    "342",
    "343",
    "344",
    "345",
    "346",
    "347",
    "348",
    "349",
    "350",
    "351",
    "352",
    "353",
    "354",
    "355",
    "356",
    "357",
    "358",
    "359",
    "360",
    "361",
    "362",
    "363",
    "364",
    "365",
    "366",
    "367",
    "368",
    "369",
    "370",
    "371",
    "372",
    "373",
    "374",
    "375",
    "376",
    "377",
    "378",
    "379",
    "380",
    "381",
    "382",
    "383",
    "384",
    "385",
    "386",
    "387",
    "388",
    "389",
    "390",
    "391",
    "392",
    "393",
    "394",
    "395",
    "396",
    "397",
    "398",
    "399",
    "400",
    "401",
    "402",
    "403",
    "404",
    "405",
    "406",
    "407",
    "408",
    "409",
    "410",
    "411",
    "412",
    "413",
    "414",
    "415",
    "416",
    "417",
    "418",
    "419",
    "420",
    "421",
    "422",
    "423",
    "424",
    "425",
    "426",
    "427",
    "428",
    "429",
    "430",
    "431",
    "432",
    "433",
    "434",
    "435",
    "436",
    "437",
    "438",
    "439",
    "440",
    "441",
    "442",
    "443",
    "444",
    "445",
    "446",
    "447",
    "448",
    "449",
    "450",
    "451",
    "452",
    "453",
    "454",
    "455",
    "456",
    "457",
    "458",
    "459",
    "460",
    "461",
    "462",
    "463",
    "464",
    "465",
    "466",
    "467",
    "468",
    "469",
    "470",
    "471",
    "472",
    "473",
    "474",
    "475",
    "476",
    "477",
    "478",
    "479",
    "480",
    "481",
    "482",
    "483",
    "484",
    "485",
    "486",
    "487",
    "488",
    "489",
    "490",
    "491",
    "492",
    "493",
    "494",
    "495",
    "496",
    "497",
    "498",
    "499",
    "500",
    "501",
    "502",
    "503",
    "504",
    "505",
    "506",
    "507",
    "508",
    "509",
    "510",
    "511",
    "512",
    "513",
    "514",
    "515",
    "516",
    "517",
    "518",
    "519",
    "520",
    "521",
    "522",
    "523",
    "524",
    "525",
    "526",
    "527",
    "528",
    "529",
    "530",
    "531",
    "532",
    "533",
    "534",
    "535",
    "536",
    "537",
    "538",
    "539",
    "540",
    "541",
    "542",
    "543",
    "544",
    "545",
    "546",
    "547",
    "548",
    "549",
    "550",
    "551",
    "552",
    "553",
    "554",
    "555",
    "556",
    "557",
    "558",
    "559",
    "560",
    "561",
    "562",
    "563",
    "564",
    "565",
    "566",
    "567",
    "568",
    "569",
    "570",
    "571",
    "572",
    "573",
    "574",
    "575",
    "576",
    "577",
    "578",
    "579",
    "580",
    "581",
    "582",
    "583",
    "584",
    "585",
    "586",
    "587",
    "588",
    "589",
    "590",
    "591",
    "592",
    "593",
    "594",
    "595",
    "596",
    "597",
    "598",
    "599",
    "600",
    "601",
    "602",
    "603",
    "604",
    "605",
    "606",
    "607",
    "608",
    "609",
    "610",
    "611",
    "612",
    "613",
    "614",
    "615",
    "616",
    "617",
    "618",
    "619",
    "620",
    "621",
    "622",
    "623",
    "624",
    "625",
    "626",
    "627",
    "628",
    "629",
    "630",
    "631",
    "632",
    "633",
    "634",
    "635",
    "636",
    "637",
    "638",
    "639",
    "640",
    "641",
    "642",
    "643",
    "644",
    "645",
    "646",
    "647",
    "648",
    "649",
    "650",
    "651",
    "652",
    "653",
    "654",
    "655",
    "656",
    "657",
    "658",
    "659",
    "660",
    "661",
    "662",
    "663",
    "664",
    "665",
    "666",
    "667",
    "668",
    "669",
    "670",
    "671",
    "672",
    "673",
    "674",
    "675",
    "676",
    "677",
    "678",
    "679",
    "680",
    "681",
    "682",
    "683",
    "684",
    "685",
    "686",
    "687",
    "688",
    "689",
    "690",
    "691",
    "692",
    "693",
    "694",
    "695",
    "696",
    "697",
    "698",
    "699",
    "700",
    "701",
    "702",
    "703",
    "704",
    "705",
    "706",
    "707",
    "708",
    "709",
    "710",
    "711",
    "712",
    "713",
    "714",
    "715",
    "716",
    "717",
    "718",
    "719",
    "720",
    "721",
    "722",
    "723",
    "724",
    "725",
    "726",
    "727",
    "728",
    "729",
    "730",
    "731",
    "732",
    "733",
    "734",
    "735",
    "736",
    "737",
    "738",
    "739",
    "740",
    "741",
    "742",
    "743",
    "744",
    "745",
    "746",
    "747",
    "748",
    "749"
  ],
  "ear_id": [
    "1",
    "2",
    "3",
    "4",
    "5",
    "6",
    "7",
    "8",
    "9",
    "10",
    "11",
    "12",
    "13",
    "14",
    "15",
    "16",
    "17",
    "18",
    "19",
    "20",
    "21",
    "22",
    "23",
    "24",
    "25",
    "26",
    "27",
    "28",
    "29",
    "30",
    "31",
    "32",
    "33",
    "34",
    "35",
    "36",
    "37",
    "38",
    "39",
    "40",
    "41",
    "42",
    "43",
    "44",
    "45",
    "46",
    "47",
    "48",
    "49",
    "50",
    "51",
    "52",
    "53",
    "54",
    "55",
    "56",
    "57",
    "58",
    "59",
    "60",
    "61",
    "62",
    "63",
    "64",
    "65",
    "66",
    "67",
    "68",
    "69",
    "70",
    "71",
    "72",
    "73",
    "74",
    "75",
    "76",
    "77",
    "78",
    "79",
    "80",
    "81",
    "82",
    "83",
    "84",
    "85",
    "86",
    "87",
    "88",
    "89",
    "90",
    "91",
    "92",
    "93",
    "94",
    "95",
    "96",
    "97",
    "98",
    "99",
    "100",
    "101",
    "102",
    "103",
    "104",
    "105",
    "106",
    "107",
    "108",
    "109",
    "110",
    "111",
    "112",
    "113",
    "114",
    "115",
    "116",
    "117",
    "118",
    "119",
    "120",
    "121",
    "122",
    "123",
    "124",
    "125",
    "126",
    "127",
    "128",
    "129",
    "130",
    "131",
    "132",
    "133",
    "134",
    "135",
    "136",
    "137",
    "138",
    "139",
    "140",
    "141",
    "142",
    "143",
    "144",
    "145",
    "146",
    "147",
    "148",
    "149",
    "150",
    "1",
    "2",
    "3",
    "4",
    "5",
    "6",
    "7",
    "8",
    "9",
    "10",
    "11",
    "12",
    "13",
    "14",
    "15",
    "16",
    "17",
    "18",
    "19",
    "20",
    "21",
    "22",
    "23",
    "24",
    "25",
    "26",
    "27",
    "28",
    "29",
    "30",
    "31",
    "32",
    "33",
    "34",
    "35",
    "36",
    "37",
    "38",
    "39",
    "40",
    "41",
    "42",
    "43",
    "44",
    "45",
    "46",
    "47",
    "48",
    "49",
    "50",
    "51",
    "52",
    "53",
    "54",
    "55",
    "56",
    "57",
    "58",
    "59",
    "60",
    "61",
    "62",
    "63",
    "64",
    "65",
    "66",
    "67",
    "68",
    "69",
    "70",
    "71",
    "72",
    "73",
    "74",
    "75",
    "76",
    "77",
    "78",
    "79",
    "80",
    "81",
    "82",
    "83",
    "84",
    "85",
    "86",
    "87",
    "88",
    "89",
    "90",
    "91",
    "92",
    "93",
    "94",
    "95",
    "96",
    "97",
    "98",
    "99",
    "100",
    "101",
    "102",
    "103",
    "104",
    "105",
    "106",
    "107",
    "108",
    "109",
    "110",
    "111",
    "112",
    "113",
    "114",
    "115",
    "116",
    "117",
    "118",
    "119",
    "120",
    "121",
    "122",
    "123",
    "124",
    "125",
    "126",
    "127",
    "128",
    "129",
    "130",
    "131",
    "132",
    "133",
    "134",
    "135",
    "136",
    "137",
    "138",
    "139",
    "140",
    "141",
    "142",
    "143",
    "144",
    "145",
    "146",
    "147",
    "148",
    "149",
    "150",
    "1",
    "2",
    "3",
    "4",
    "5",
    "6",
    "7",
    "8",
    "9",
    "10",
    "11",
    "12",
    "13",
    "14",
    "15",
    "16",
    "17",
    "18",
    "19",
    "20",
    "21",
    "22",
    "23",
    "24",
    "25",
    "26",
    "27",
    "28",
    "29",
    "30",
    "31",
    "32",
    "33",
    "34",
    "35",
    "36",
    "37",
    "38",
    "39",
    "40",
    "41",
    "42",
    "43",
    "44",
    "45",
    "46",
    "47",
    "48",
    "49",
    "50",
    "51",
    "52",
    "53",
    "54",
    "55",
    "56",
    "57",
    "58",
    "59",
    "60",
    "61",
    "62",
    "63",
    "64",
    "65",
    "66",
    "67",
    "68",
    "69",
    "70",
    "71",
    "72",
    "73",
    "74",
    "75",
    "76",
    "77",
    "78",
    "79",
    "80",
    "81",
    "82",
    "83",
    "84",
    "85",
    "86",
    "87",
    "88",
    "89",
    "90",
    "91",
    "92",
    "93",
    "94",
    "95",
    "96",
    "97",
    "98",
    "99",
    "100",
    "101",
    "102",
    "103",
    "104",
    "105",
    "106",
    "107",
    "108",
    "109",
    "110",
    "111",
    "112",
    "113",
    "114",
    "115",
    "116",
    "117",
    "118",
    "119",
    "120",
    "121",
    "122",
    "123",
    "124",
    "125",
    "126",
    "127",
    "128",
    "129",
    "130",
    "131",
    "132",
    "133",
    "134",
    "135",
    "136",
    "137",
    "138",
    "139",
    "140",
    "141",
    "142",
    "143",
    "144",
    "145",
    "146",
    "147",
    "148",
    "149",
    "150",
    "1",
    "2",
    "3",
    "4",
    "5",
    "6",
    "7",
    "8",
    "9",
    "10",
    "11",
    "12",
    "13",
    "14",
    "15",
    "16",
    "17",
    "18",
    "19",
    "20",
    "21",
    "22",
    "23",
    "24",
    "25",
    "26",
    "27",
    "28",
    "29",
    "30",
    "31",
    "32",
    "33",
    "34",
    "35",
    "36",
    "37",
    "38",
    "39",
    "40",
    "41",
    "42",
    "43",
    "44",
    "45",
    "46",
    "47",
    "48",
    "49",
    "50",
    "51",
    "52",
    "53",
    "54",
    "55",
    "56",
    "57",
    "58",
    "59",
    "60",
    "61",
    "62",
    "63",
    "64",
    "65",
    "66",
    "67",
    "68",
    "69",
    "70",
    "71",
    "72",
    "73",
    "74",
    "75",
    "76",
    "77",
    "78",
    "79",
    "80",
    "81",
    "82",
    "83",
    "84",
    "85",
    "86",
    "87",
    "88",
    "89",
    "90",
    "91",
    "92",
    "93",
    "94",
    "95",
    "96",
    "97",
    "98",
    "99",
    "100",
    "101",
    "102",
    "103",
    "104",
    "105",
    "106",
    "107",
    "108",
    "109",
    "110",
    "111",
    "112",
    "113",
    "114",
    "115",
    "116",
    "117",
    "118",
    "119",
    "120",
    "121",
    "122",
    "123",
    "124",
    "125",
    "126",
    "127",
    "128",
    "129",
    "130",
    "131",
    "132",
    "133",
    "134",
    "135",
    "136",
    "137",
    "138",
    "139",
    "140",
    "141",
    "142",
    "143",
    "144",
    "145",
    "146",
    "147",
    "148",
    "149",
    "150",
    "1",
    "2",
    "3",
    "4",
    "5",
    "6",
    "7",
    "8",
    "9",
    "10",
    "11",
    "12",
    "13",
    "14",
    "15",
    "16",
    "17",
    "18",
    "19",
    "20",
    "21",
    "22",
    "23",
    "24",
    "25",
    "26",
    "27",
    "28",
    "29",
    "30",
    "31",
    "32",
    "33",
    "34",
    "35",
    "36",
    "37",
    "38",
    "39",
    "40",
    "41",
    "42",
    "43",
    "44",
    "45",
    "46",
    "47",
    "48",
    "49",
    "50",
    "51",
    "52",
    "53",
    "54",
    "55",
    "56",
    "57",
    "58",
    "59",
    "60",
    "61",
    "62",
    "63",
    "64",
    "65",
    "66",
    "67",
    "68",
    "69",
    "70",
    "71",
    "72",
    "73",
    "74",
    "75",
    "76",
    "77",
    "78",
    "79",
    "80",
    "81",
    "82",
    "83",
    "84",
    "85",
    "86",
    "87",
    "88",
    "89",
    "90",
    "91",
    "92",
    "93",
    "94",
    "95",
    "96",
    "97",
    "98",
    "99",
    "100",
    "101",
    "102",
    "103",
    "104",
    "105",
    "106",
    "107",
    "108",
    "109",
    "110",
    "111",
    "112",
    "113",
    "114",
    "115",
    "116",
    "117",
    "118",
    "119",
    "120",
    "121",
    "122",
    "123",
    "124",
    "125",
    "126",
    "127",
    "128",
    "129",
    "130",
    "131",
    "132",
    "133",
    "134",
    "135",
    "136",
    "137",
    "138",
    "139",
    "140",
    "141",
    "142",
    "143",
    "144",
    "145",
    "146",
    "147",
    "148",
    "149",
    "150"
  ],
  "collection_time": [
    "1486447200.0",
    "1486447200.0",
    "1486447200.0",
    "1486447200.0",
    "1486447200.0",
    "1486447200.0",
    "1486447200.0",
    "1486447200.0",
    "1486447200.0",
    "1486447200.0",
    "1486447200.0",
    "1486447200.0",
    "1486447200.0",
    "1486447200.0",
    "1486447200.0",
    "1486447200.0",
    "1486447200.0",
    "1486447200.0",
    "1486447200.0",
    "1486447200.0",
    "1486447200.0",
    "1486447200.0",
    "1486447200.0",
    "1486447200.0",
    "1486447200.0",
    "1486447200.0",
    "1486447200.0",
    "1486447200.0",
    "1486447200.0",
    "1486447200.0",
    "1486447200.0",
    "1486447200.0",
    "1486447200.0",
    "1486447200.0",
    "1486447200.0",
    "1486447200.0",
    "1486447200.0",
    "1486447200.0",
    "1486447200.0",
    "1486447200.0",
    "1486447200.0",
    "1486447200.0",
    "1486447200.0",
    "1486447200.0",
    "1486447200.0",
    "1486447200.0",
    "1486447200.0",
    "1486447200.0",
    "1486447200.0",
    "1486447200.0",
    "1486447200.0",
    "1486447200.0",
    "1486447200.0",
    "1486447200.0",
    "1486447200.0",
    "1486447200.0",
    "1486447200.0",
    "1486447200.0",
    "1486447200.0",
    "1486447200.0",
    "1486447200.0",
    "1486447200.0",
    "1486447200.0",
    "1486447200.0",
    "1486447200.0",
    "1486447200.0",
    "1486447200.0",
    "1486447200.0",
    "1486447200.0",
    "1486447200.0",
    "1486447200.0",
    "1486447200.0",
    "1486447200.0",
    "1486447200.0",
    "1486447200.0",
    "1486447200.0",
    "1486447200.0",
    "1486447200.0",
    "1486447200.0",
    "1486447200.0",
    "1486447200.0",
    "1486447200.0",
    "1486447200.0",
    "1486447200.0",
    "1486447200.0",
    "1486447200.0",
    "1486447200.0",
    "1486447200.0",
    "1486447200.0",
    "1486447200.0",
    "1486447200.0",
    "1486447200.0",
    "1486447200.0",
    "1486447200.0",
    "1486447200.0",
    "1486447200.0",
    "1486447200.0",
    "1486447200.0",
    "1486447200.0",
    "1486447200.0",
    "1486447200.0",
    "1486447200.0",
    "1486447200.0",
    "1486447200.0",
    "1486447200.0",
    "1486447200.0",
    "1486447200.0",
    "1486447200.0",
    "1486447200.0",
    "1486447200.0",
    "1486447200.0",
    "1486447200.0",
    "1486447200.0",
    "1486447200.0",
    "1486447200.0",
    "1486447200.0",
    "1486447200.0",
    "1486447200.0",
    "1486447200.0",
    "1486447200.0",
    "1486447200.0",
    "1486447200.0",
    "1486447200.0",
    "1486447200.0",
    "1486447200.0",
    "1486447200.0",
    "1486447200.0",
    "1486447200.0",
    "1486447200.0",
    "1486447200.0",
    "1486447200.0",
    "1486447200.0",
    "1486447200.0",
    "1486447200.0",
    "1486447200.0",
    "1486447200.0",
    "1486447200.0",
    "1486447200.0",
    "1486447200.0",
    "1486447200.0",
    "1486447200.0",
    "1486447200.0",
    "1486447200.0",
    "1486447200.0",
    "1486447200.0",
    "1486447200.0",
    "1486447200.0",
    "1486447200.0",
    "1486447200.0",
    "1486447200.0",
    "1492146000.0",
    "1492146000.0",
    "1492146000.0",
    "1492146000.0",
    "1492146000.0",
    "1492146000.0",
    "1492146000.0",
    "1492146000.0",
    "1492146000.0",
    "1492146000.0",
    "1492146000.0",
    "1492146000.0",
    "1492146000.0",
    "1492146000.0",
    "1492146000.0",
    "1492146000.0",
    "1492146000.0",
    "1492146000.0",
    "1492146000.0",
    "1492146000.0",
    "1492146000.0",
    "1492146000.0",
    "1492146000.0",
    "1492146000.0",
    "1492146000.0",
    "1492146000.0",
    "1492146000.0",
    "1492146000.0",
    "1492146000.0",
    "1492146000.0",
    "1492146000.0",
    "1492146000.0",
    "1492146000.0",
    "1492146000.0",
    "1492146000.0",
    "1492146000.0",
    "1492146000.0",
    "1492146000.0",
    "1492146000.0",
    "1492146000.0",
    "1492146000.0",
    "1492146000.0",
    "1492146000.0",
    "1492146000.0",
    "1492146000.0",
    "1492146000.0",
    "1492146000.0",
    "1492146000.0",
    "1492146000.0",
    "1492146000.0",
    "1492146000.0",
    "1492146000.0",
    "1492146000.0",
    "1492146000.0",
    "1492146000.0",
    "1492146000.0",
    "1492146000.0",
    "1492146000.0",
    "1492146000.0",
    "1492146000.0",
    "1492146000.0",
    "1492146000.0",
    "1492146000.0",
    "1492146000.0",
    "1492146000.0",
    "1492146000.0",
    "1492146000.0",
    "1492146000.0",
    "1492146000.0",
    "1492146000.0",
    "1492146000.0",
    "1492146000.0",
    "1492146000.0",
    "1492146000.0",
    "1492146000.0",
    "1492146000.0",
    "1492146000.0",
    "1492146000.0",
    "1492146000.0",
    "1492146000.0",
    "1492146000.0",
    "1492146000.0",
    "1492146000.0",
    "1492146000.0",
    "1492146000.0",
    "1492146000.0",
    "1492146000.0",
    "1492146000.0",
    "1492146000.0",
    "1492146000.0",
    "1492146000.0",
    "1492146000.0",
    "1492146000.0",
    "1492146000.0",
    "1492146000.0",
    "1492146000.0",
    "1492146000.0",
    "1492146000.0",
    "1492146000.0",
    "1492146000.0",
    "1492146000.0",
    "1492146000.0",
    "1492146000.0",
    "1492146000.0",
    "1492146000.0",
    "1492146000.0",
    "1492146000.0",
    "1492146000.0",
    "1492146000.0",
    "1492146000.0",
    "1492146000.0",
    "1492146000.0",
    "1492146000.0",
    "1492146000.0",
    "1492146000.0",
    "1492146000.0",
    "1492146000.0",
    "1492146000.0",
    "1492146000.0",
    "1492146000.0",
    "1492146000.0",
    "1492146000.0",
    "1492146000.0",
    "1492146000.0",
    "1492146000.0",
    "1492146000.0",
    "1492146000.0",
    "1492146000.0",
    "1492146000.0",
    "1492146000.0",
    "1492146000.0",
    "1492146000.0",
    "1492146000.0",
    "1492146000.0",
    "1492146000.0",
    "1492146000.0",
    "1492146000.0",
    "1492146000.0",
    "1492146000.0",
    "1492146000.0",
    "1492146000.0",
    "1492146000.0",
    "1492146000.0",
    "1492146000.0",
    "1492146000.0",
    "1492146000.0",
    "1492146000.0",
    "1492146000.0",
    "1492146000.0",
    "1492146000.0",
    "1494392400.0",
    "1494392400.0",
    "1494392400.0",
    "1494392400.0",
    "1494392400.0",
    "1494392400.0",
    "1494392400.0",
    "1494392400.0",
    "1494392400.0",
    "1494392400.0",
    "1494392400.0",
    "1494392400.0",
    "1494392400.0",
    "1494392400.0",
    "1494392400.0",
    "1494392400.0",
    "1494392400.0",
    "1494392400.0",
    "1494392400.0",
    "1494392400.0",
    "1494392400.0",
    "1494392400.0",
    "1494392400.0",
    "1494392400.0",
    "1494392400.0",
    "1494392400.0",
    "1494392400.0",
    "1494392400.0",
    "1494392400.0",
    "1494392400.0",
    "1494392400.0",
    "1494392400.0",
    "1494392400.0",
    "1494392400.0",
    "1494392400.0",
    "1494392400.0",
    "1494392400.0",
    "1494392400.0",
    "1494392400.0",
    "1494392400.0",
    "1494392400.0",
    "1494392400.0",
    "1494392400.0",
    "1494392400.0",
    "1494392400.0",
    "1494392400.0",
    "1494392400.0",
    "1494392400.0",
    "1494392400.0",
    "1494392400.0",
    "1494392400.0",
    "1494392400.0",
    "1494392400.0",
    "1494392400.0",
    "1494392400.0",
    "1494392400.0",
    "1494392400.0",
    "1494392400.0",
    "1494392400.0",
    "1494392400.0",
    "1494392400.0",
    "1494392400.0",
    "1494392400.0",
    "1494392400.0",
    "1494392400.0",
    "1494392400.0",
    "1494392400.0",
    "1494392400.0",
    "1494392400.0",
    "1494392400.0",
    "1494392400.0",
    "1494392400.0",
    "1494392400.0",
    "1494392400.0",
    "1494392400.0",
    "1494392400.0",
    "1494392400.0",
    "1494392400.0",
    "1494392400.0",
    "1494392400.0",
    "1494392400.0",
    "1494392400.0",
    "1494392400.0",
    "1494392400.0",
    "1494392400.0",
    "1494392400.0",
    "1494392400.0",
    "1494392400.0",
    "1494392400.0",
    "1494392400.0",
    "1494392400.0",
    "1494392400.0",
    "1494392400.0",
    "1494392400.0",
    "1494392400.0",
    "1494392400.0",
    "1494392400.0",
    "1494392400.0",
    "1494392400.0",
    "1494392400.0",
    "1494392400.0",
    "1494392400.0",
    "1494392400.0",
    "1494392400.0",
    "1494392400.0",
    "1494392400.0",
    "1494392400.0",
    "1494392400.0",
    "1494392400.0",
    "1494392400.0",
    "1494392400.0",
    "1494392400.0",
    "1494392400.0",
    "1494392400.0",
    "1494392400.0",
    "1494392400.0",
    "1494392400.0",
    "1494392400.0",
    "1494392400.0",
    "1494392400.0",
    "1494392400.0",
    "1494392400.0",
    "1494392400.0",
    "1494392400.0",
    "1494392400.0",
    "1494392400.0",
    "1494392400.0",
    "1494392400.0",
    "1494392400.0",
    "1494392400.0",
    "1494392400.0",
    "1494392400.0",
    "1494392400.0",
    "1494392400.0",
    "1494392400.0",
    "1494392400.0",
    "1494392400.0",
    "1494392400.0",
    "1494392400.0",
    "1494392400.0",
    "1494392400.0",
    "1494392400.0",
    "1494392400.0",
    "1494392400.0",
    "1494392400.0",
    "1494392400.0",
    "1494392400.0",
    "1494392400.0",
    "1494392400.0",
    "1494392400.0",
    "1498021200.0",
    "1498021200.0",
    "1498021200.0",
    "1498021200.0",
    "1498021200.0",
    "1498021200.0",
    "1498021200.0",
    "1498021200.0",
    "1498021200.0",
    "1498021200.0",
    "1498021200.0",
    "1498021200.0",
    "1498021200.0",
    "1498021200.0",
    "1498021200.0",
    "1498021200.0",
    "1498021200.0",
    "1498021200.0",
    "1498021200.0",
    "1498021200.0",
    "1498021200.0",
    "1498021200.0",
    "1498021200.0",
    "1498021200.0",
    "1498021200.0",
    "1498021200.0",
    "1498021200.0",
    "1498021200.0",
    "1498021200.0",
    "1498021200.0",
    "1498021200.0",
    "1498021200.0",
    "1498021200.0",
    "1498021200.0",
    "1498021200.0",
    "1498021200.0",
    "1498021200.0",
    "1498021200.0",
    "1498021200.0",
    "1498021200.0",
    "1498021200.0",
    "1498021200.0",
    "1498021200.0",
    "1498021200.0",
    "1498021200.0",
    "1498021200.0",
    "1498021200.0",
    "1498021200.0",
    "1498021200.0",
    "1498021200.0",
    "1498021200.0",
    "1498021200.0",
    "1498021200.0",
    "1498021200.0",
    "1498021200.0",
    "1498021200.0",
    "1498021200.0",
    "1498021200.0",
    "1498021200.0",
    "1498021200.0",
    "1498021200.0",
    "1498021200.0",
    "1498021200.0",
    "1498021200.0",
    "1498021200.0",
    "1498021200.0",
    "1498021200.0",
    "1498021200.0",
    "1498021200.0",
    "1498021200.0",
    "1498021200.0",
    "1498021200.0",
    "1498021200.0",
    "1498021200.0",
    "1498021200.0",
    "1498021200.0",
    "1498021200.0",
    "1498021200.0",
    "1498021200.0",
    "1498021200.0",
    "1498021200.0",
    "1498021200.0",
    "1498021200.0",
    "1498021200.0",
    "1498021200.0",
    "1498021200.0",
    "1498021200.0",
    "1498021200.0",
    "1498021200.0",
    "1498021200.0",
    "1498021200.0",
    "1498021200.0",
    "1498021200.0",
    "1498021200.0",
    "1498021200.0",
    "1498021200.0",
    "1498021200.0",
    "1498021200.0",
    "1498021200.0",
    "1498021200.0",
    "1498021200.0",
    "1498021200.0",
    "1498021200.0",
    "1498021200.0",
    "1498021200.0",
    "1498021200.0",
    "1498021200.0",
    "1498021200.0",
    "1498021200.0",
    "1498021200.0",
    "1498021200.0",
    "1498021200.0",
    "1498021200.0",
    "1498021200.0",
    "1498021200.0",
    "1498021200.0",
    "1498021200.0",
    "1498021200.0",
    "1498021200.0",
    "1498021200.0",
    "1498021200.0",
    "1498021200.0",
    "1498021200.0",
    "1498021200.0",
    "1498021200.0",
    "1498021200.0",
    "1498021200.0",
    "1498021200.0",
    "1498021200.0",
    "1498021200.0",
    "1498021200.0",
    "1498021200.0",
    "1498021200.0",
    "1498021200.0",
    "1498021200.0",
    "1498021200.0",
    "1498021200.0",
    "1498021200.0",
    "1498021200.0",
    "1498021200.0",
    "1498021200.0",
    "1498021200.0",
    "1498021200.0",
    "1498021200.0",
    "1498021200.0",
    "1498021200.0",
    "1498021200.0",
    "1498021200.0",
    "1498021200.0",
    "1498021200.0",
    "1499922000.0",
    "1499922000.0",
    "1499922000.0",
    "1499922000.0",
    "1499922000.0",
    "1499922000.0",
    "1499922000.0",
    "1499922000.0",
    "1499922000.0",
    "1499922000.0",
    "1499922000.0",
    "1499922000.0",
    "1499922000.0",
    "1499922000.0",
    "1499922000.0",
    "1499922000.0",
    "1499922000.0",
    "1499922000.0",
    "1499922000.0",
    "1499922000.0",
    "1499922000.0",
    "1499922000.0",
    "1499922000.0",
    "1499922000.0",
    "1499922000.0",
    "1499922000.0",
    "1499922000.0",
    "1499922000.0",
    "1499922000.0",
    "1499922000.0",
    "1499922000.0",
    "1499922000.0",
    "1499922000.0",
    "1499922000.0",
    "1499922000.0",
    "1499922000.0",
    "1499922000.0",
    "1499922000.0",
    "1499922000.0",
    "1499922000.0",
    "1499922000.0",
    "1499922000.0",
    "1499922000.0",
    "1499922000.0",
    "1499922000.0",
    "1499922000.0",
    "1499922000.0",
    "1499922000.0",
    "1499922000.0",
    "1499922000.0",
    "1499922000.0",
    "1499922000.0",
    "1499922000.0",
    "1499922000.0",
    "1499922000.0",
    "1499922000.0",
    "1499922000.0",
    "1499922000.0",
    "1499922000.0",
    "1499922000.0",
    "1499922000.0",
    "1499922000.0",
    "1499922000.0",
    "1499922000.0",
    "1499922000.0",
    "1499922000.0",
    "1499922000.0",
    "1499922000.0",
    "1499922000.0",
    "1499922000.0",
    "1499922000.0",
    "1499922000.0",
    "1499922000.0",
    "1499922000.0",
    "1499922000.0",
    "1499922000.0",
    "1499922000.0",
    "1499922000.0",
    "1499922000.0",
    "1499922000.0",
    "1499922000.0",
    "1499922000.0",
    "1499922000.0",
    "1499922000.0",
    "1499922000.0",
    "1499922000.0",
    "1499922000.0",
    "1499922000.0",
    "1499922000.0",
    "1499922000.0",
    "1499922000.0",
    "1499922000.0",
    "1499922000.0",
    "1499922000.0",
    "1499922000.0",
    "1499922000.0",
    "1499922000.0",
    "1499922000.0",
    "1499922000.0",
    "1499922000.0",
    "1499922000.0",
    "1499922000.0",
    "1499922000.0",
    "1499922000.0",
    "1499922000.0",
    "1499922000.0",
    "1499922000.0",
    "1499922000.0",
    "1499922000.0",
    "1499922000.0",
    "1499922000.0",
    "1499922000.0",
    "1499922000.0",
    "1499922000.0",
    "1499922000.0",
    "1499922000.0",
    "1499922000.0",
    "1499922000.0",
    "1499922000.0",
    "1499922000.0",
    "1499922000.0",
    "1499922000.0",
    "1499922000.0",
    "1499922000.0",
    "1499922000.0",
    "1499922000.0",
    "1499922000.0",
    "1499922000.0",
    "1499922000.0",
    "1499922000.0",
    "1499922000.0",
    "1499922000.0",
    "1499922000.0",
    "1499922000.0",
    "1499922000.0",
    "1499922000.0",
    "1499922000.0",
    "1499922000.0",
    "1499922000.0",
    "1499922000.0",
    "1499922000.0",
    "1499922000.0",
    "1499922000.0",
    "1499922000.0",
    "1499922000.0",
    "1499922000.0",
    "1499922000.0",
    "1499922000.0",
    "1499922000.0",
    "1499922000.0"
  ],
  "weight": [
    "12.598658945155776",
    "4.749303921438705",
    "3.9897478400208604",
    "3.3198682903308327",
    "4.8195744805394325",
    "14.698160442270131",
    "-2.0522691867025014",
    "-10.55070349640318",
    "20.63472553217997",
    "-3.151097753820764",
    "14.859154636159058",
    "6.693317369411206",
    "21.948204194726152",
    "19.369021565192156",
    "12.69293356753662",
    "-12.389366482362583",
    "4.441375885791029",
    "7.959317242036698",
    "-5.584520164662971",
    "7.657773649409949",
    "2.434984600779635",
    "14.539322502029048",
    "0.9372770410344557",
    "8.223589328144712",
    "0.49044895228650986",
    "4.873075957442617",
    "5.876742113805288",
    "26.37020939408223",
    "9.777914303312182",
    "0.8755186834076589",
    "26.406257239462036",
    "-1.569904958788804",
    "0.1738242106626675",
    "2.062947772243273",
    "-0.4555827432559809",
    "6.459952388601943",
    "15.209011941860673",
    "7.332973214462035",
    "-1.381815238128567",
    "22.811311469346066",
    "3.2689551947378455",
    "1.685059806885679",
    "-6.103464473795611",
    "-10.699461719933126",
    "11.176556769869553",
    "-3.77268033036073",
    "15.486627546719967",
    "4.445269618998429",
    "3.7638299498060626",
    "2.242388300595408",
    "6.691967462253494",
    "3.388547029376154",
    "3.4299626252378577",
    "-8.051568497874868",
    "20.771242498712773",
    "14.40868880197404",
    "9.438690803007344",
    "20.02353168930732",
    "17.583763121994274",
    "8.152151003926303",
    "14.079000071515935",
    "8.464665794853625",
    "22.913243790735464",
    "12.165139642190386",
    "24.536276667779603",
    "8.181477251964186",
    "8.790222959554407",
    "4.146531029459461",
    "0.15042154978302236",
    "6.793911327093454",
    "5.296371781926993",
    "3.6960112408848254",
    "18.227757041903455",
    "-7.317961186329182",
    "19.269767857048386",
    "20.04722129307145",
    "-4.80936515188373",
    "14.54101316680371",
    "13.388641539941606",
    "16.340191528667148",
    "26.14763928230336",
    "9.359192233070733",
    "5.381004443226994",
    "1.7949749524709269",
    "9.715773133136032",
    "13.318488968024353",
    "8.207937724597048",
    "5.8291636822571355",
    "7.659179858883375",
    "19.994774080414203",
    "4.177942973480832",
    "21.484128112296524",
    "21.817579445293596",
    "14.36002742144391",
    "17.192896520658298",
    "-8.260895930069207",
    "26.753065603808164",
    "12.516382507518012",
    "22.960622340952796",
    "-10.345000620958412",
    "4.421609112139155",
    "12.894836150477307",
    "3.7027416922290524",
    "-3.0687891037442228",
    "25.42225054229172",
    "10.060836627618425",
    "5.5776506109809585",
    "9.922446080080263",
    "1.4024862752084228",
    "5.357625315112126",
    "17.911115426003807",
    "13.277178983606872",
    "6.142182121071489",
    "20.01587948593904",
    "6.4698743230995355",
    "4.3877125768633665",
    "16.15036325384762",
    "31.339033562873986",
    "14.130839961934413",
    "15.388164787745886",
    "1.8691449116963188",
    "15.95223134267001",
    "8.629093697934287",
    "13.308834350589832",
    "8.328367183841669",
    "4.573443151454226",
    "-2.842530047553449",
    "14.746045533179544",
    "-8.234347573411888",
    "8.140775422238837",
    "-2.457820315947856",
    "10.545462843872462",
    "8.706697068768499",
    "1.667808574806541",
    "5.5116022779523615",
    "-2.245122441984565",
    "-5.137915460518146",
    "15.247704945424767",
    "1.0194912904797242",
    "14.100868450439187",
    "14.888930546722612",
    "17.5834203587657",
    "20.22258612636702",
    "23.160924762397133",
    "5.315373876576206",
    "8.761052347870285",
    "10.349984263130706",
    "10.41571880965105",
    "11.555866013653997",
    "16.230179254399232",
    "36.86641234963644",
    "60.603899598465105",
    "45.97789502000914",
    "59.124338717021594",
    "25.889959745339254",
    "35.111995809946734",
    "59.0002316383501",
    "20.81950402343435",
    "40.37485491270828",
    "44.782052381199954",
    "45.28989033970414",
    "41.24009215050381",
    "28.444577858756478",
    "47.42321057809924",
    "35.30229254796216",
    "32.495511956741254",
    "62.679727697913556",
    "42.60546356584461",
    "52.69551304016031",
    "50.62178382738318",
    "55.80991895581777",
    "39.56293689521877",
    "61.842408788042604",
    "42.342705044519235",
    "40.41021439180758",
    "59.74809199167668",
    "50.268465556928824",
    "47.560757813424814",
    "44.55516298258059",
    "52.089361106974394",
    "42.93519462792373",
    "38.560856361629114",
    "37.73440539917314",
    "40.90687431276389",
    "43.86858986024927",
    "33.569755440304434",
    "36.28822164689531",
    "42.17631117386506",
    "35.96174834007582",
    "47.2288913591705",
    "57.12728501947622",
    "39.04145789610508",
    "42.38173179941769",
    "58.100812176895104",
    "50.89061942615169",
    "51.83655313810805",
    "48.58140392240391",
    "40.85475917228159",
    "42.194758819503974",
    "46.25594256356152",
    "40.055846471337965",
    "50.19923847182367",
    "35.36557650058894",
    "48.44056040455609",
    "44.97739514053496",
    "25.33365769254415",
    "50.212534389762034",
    "34.48127898833607",
    "50.368575257139334",
    "40.30160245341479",
    "51.174104691270124",
    "37.08005338046603",
    "55.0021552349164",
    "50.436961106936906",
    "36.73516590764409",
    "63.17321967062731",
    "65.25748083017206",
    "33.9436264833021",
    "45.35577738165744",
    "37.740697821424334",
    "30.16474727994007",
    "55.81272491179256",
    "45.668753841621154",
    "58.73350391621952",
    "38.72701117822258",
    "44.90927529430953",
    "50.563147988862774",
    "48.97199667875244",
    "50.85660562188381",
    "41.23724192091781",
    "42.57577844864945",
    "37.05476081055127",
    "46.39817655694277",
    "53.950294690025885",
    "52.96643883217408",
    "56.03497788391821",
    "55.916844502312514",
    "50.69247438083904",
    "33.109128327517254",
    "43.92452205544351",
    "46.129373310049814",
    "53.06474378487434",
    "24.49645456528846",
    "45.60011808416791",
    "41.1879407226409",
    "54.81024628192068",
    "38.62789422678381",
    "41.25643899610037",
    "63.801136526022546",
    "38.33716874767122",
    "44.711590393754065",
    "55.218427898733246",
    "37.42487348171234",
    "35.02726593088076",
    "36.953103106399084",
    "23.741181303214262",
    "40.73285130599411",
    "57.42672967659317",
    "43.929774063746926",
    "49.36793048732033",
    "41.820417088451556",
    "37.90561308559988",
    "27.001456158103515",
    "35.26172780320303",
    "55.04712274159864",
    "17.466861796181767",
    "44.697472442347596",
    "38.755728557642215",
    "61.15865757272673",
    "50.14084832255845",
    "40.249754402721166",
    "42.23364199535923",
    "45.90616795881796",
    "44.89555290539351",
    "33.08560365529748",
    "21.98149429838638",
    "41.38867194995357",
    "40.119483860174775",
    "57.18889082932364",
    "34.54153435693106",
    "39.50201013173862",
    "47.9523648198292",
    "40.904812083954056",
    "47.919246677554",
    "36.96759940923844",
    "41.67200766555642",
    "58.15787154201864",
    "40.11001882847965",
    "47.33399880231259",
    "26.370559600878305",
    "44.0608372847513",
    "60.23651147816785",
    "39.52716286692422",
    "52.22495940606672",
    "47.73824697481005",
    "41.551952537117494",
    "30.19033743959122",
    "56.71014328458296",
    "59.40812109449688",
    "42.59878098179144",
    "50.609653620607716",
    "51.629868425931306",
    "61.774026549542015",
    "63.284228570268425",
    "67.33320994680383",
    "65.657476941305",
    "47.088141364192666",
    "52.847454606871175",
    "52.49255126684533",
    "51.116506341065964",
    "60.937783443920765",
    "58.17402115536643",
    "68.5397601711996",
    "65.52393870809011",
    "56.81624300102169",
    "52.867600427457134",
    "66.46577452246842",
    "82.17711270121505",
    "62.9879079573352",
    "56.66026292461774",
    "47.384835970133174",
    "61.40295905971276",
    "60.64354145342703",
    "64.67754340118391",
    "48.36725415291314",
    "61.1838505663504",
    "70.1584750275239",
    "61.57896465150182",
    "58.821383711500744",
    "58.43164306050904",
    "55.84373669629142",
    "64.62899656327113",
    "66.72811666096578",
    "53.97000705892814",
    "74.49114208175658",
    "65.15473761194258",
    "58.85503365326646",
    "46.31095153507868",
    "71.54366639711193",
    "58.71576498206902",
    "53.49130360353551",
    "82.75274128456047",
    "90.75359244973826",
    "56.82408989058297",
    "49.336179900095736",
    "60.37774503715099",
    "60.36035911812623",
    "60.09080362419648",
    "56.251080021654815",
    "58.107110599918165",
    "35.466311892955886",
    "70.29214765688933",
    "68.51056404353122",
    "48.02154742047152",
    "51.76381757873909",
    "63.49958286246486",
    "59.64046526304787",
    "62.98016700884745",
    "65.39683005204725",
    "74.32367163646462",
    "64.26828390076714",
    "62.060227375188035",
    "59.99484506155819",
    "60.64151802818974",
    "61.01889193760791",
    "47.34466075464182",
    "58.799203551055655",
    "41.412291021015776",
    "71.59833338429955",
    "68.98104041466357",
    "67.54876373911468",
    "60.94981404390688",
    "61.0040116848499",
    "94.57572602829715",
    "45.992939259469566",
    "66.63634309794463",
    "66.41964681348288",
    "57.753640002633745",
    "50.04911529407684",
    "64.24348776876275",
    "50.65334135086499",
    "60.26333610681022",
    "66.06029152686132",
    "56.519342615019966",
    "78.12462298661964",
    "63.92589728299152",
    "58.48288899460497",
    "48.85186474343041",
    "51.78504019458536",
    "61.872239220639706",
    "74.05756757946801",
    "69.30569050203272",
    "59.865318089075494",
    "67.13813507483955",
    "63.074043583765445",
    "56.45168221765321",
    "63.59654450195319",
    "55.300417738326544",
    "55.15029260120502",
    "57.171054973948856",
    "52.720881612263014",
    "64.54730790884183",
    "67.03685780374482",
    "46.34183568917758",
    "46.2837472816089",
    "48.091974513363894",
    "61.403717523311656",
    "74.90362275399751",
    "55.89636317316326",
    "54.55143455344785",
    "62.383951308770946",
    "59.81849195612833",
    "54.883564538121036",
    "53.966987524010484",
    "76.0393950300597",
    "49.60882508193139",
    "53.27595614611974",
    "70.38470907820796",
    "41.32190609283559",
    "45.51289700566901",
    "66.93327377315303",
    "63.663503865008",
    "73.02772991220438",
    "49.27730707961045",
    "73.60861468103658",
    "51.246199206912614",
    "67.57645268926068",
    "58.08613156865722",
    "63.91076082668749",
    "50.950293229727926",
    "61.99305117320646",
    "55.10024051485404",
    "68.31250970270713",
    "66.97859214270153",
    "84.15142769581699",
    "54.161934794503985",
    "53.909567455756815",
    "59.627655714228666",
    "68.78031310552117",
    "58.07877736021156",
    "44.4929530862665",
    "49.50386809805777",
    "56.68390616503084",
    "62.23376983668658",
    "57.90888622168768",
    "57.81796670779748",
    "49.06465060908348",
    "59.794724300015346",
    "63.65749737805851",
    "52.75219471536506",
    "68.54036477214363",
    "92.51324000068693",
    "92.28276606681146",
    "92.09200585078977",
    "84.89387707643576",
    "91.04145595653944",
    "107.93863816337655",
    "85.28839491956114",
    "93.57070910193482",
    "99.55304077268607",
    "97.52384371385237",
    "99.6374854844489",
    "104.04232165016838",
    "81.41037004724703",
    "89.96931281161406",
    "81.45854167689735",
    "83.76647923183683",
    "95.26882955848268",
    "84.50564757503471",
    "102.774712264605",
    "77.72176990159436",
    "74.31158680324087",
    "71.25920937804239",
    "88.79062047943297",
    "80.49393222078857",
    "90.37040395613415",
    "83.80342865937921",
    "92.1305177403734",
    "91.13003441040925",
    "90.32872426376358",
    "90.59350166728966",
    "86.02804301370774",
    "89.40742339887028",
    "85.13853474322345",
    "84.22931005908077",
    "81.9494158144081",
    "88.0522273318306",
    "86.94676940604548",
    "74.60572554797396",
    "84.4606726064732",
    "79.74030854936231",
    "77.65737328396395",
    "74.54088217481372",
    "98.24751526762721",
    "99.57104845085709",
    "103.24299827783322",
    "84.47475589577138",
    "84.07457289870351",
    "94.62863216376587",
    "83.86841092585152",
    "84.56118184984699",
    "95.67451372834978",
    "88.56409014988989",
    "104.62809812648895",
    "93.44651573361331",
    "87.86965536137748",
    "80.09483803469786",
    "78.93385914232131",
    "78.09583308932761",
    "80.29106542991497",
    "78.47192718315377",
    "93.80032582246604",
    "85.20359081898035",
    "97.40212167698373",
    "88.52381485145098",
    "93.0800227587456",
    "94.12476984535616",
    "80.49774831802543",
    "84.11376204378823",
    "84.15761148115763",
    "79.45877108645684",
    "83.44062364816699",
    "78.50867359277551",
    "98.06090155023115",
    "75.96344921603507",
    "90.84670607525284",
    "89.52408097952795",
    "81.97622970896238",
    "96.49184705381754",
    "104.0663308724821",
    "90.78717744514272",
    "90.40955775740485",
    "75.14833459807971",
    "90.17990545903032",
    "89.6652027777127",
    "94.67414075842825",
    "80.53261345303599",
    "94.5482582903015",
    "95.52814267549759",
    "78.45460220598521",
    "98.92791400202792",
    "88.22155656234867",
    "65.77535351427244",
    "94.21866012547672",
    "86.01839287940075",
    "85.46627646142942",
    "81.63143840433068",
    "69.35381395187092",
    "94.70986043508192",
    "81.70104972946808",
    "92.96469019827013",
    "102.76993590627808",
    "93.0998673743297",
    "101.74744566980897",
    "89.26911731643064",
    "97.15193003531704",
    "83.81933123960064",
    "88.76593547443548",
    "78.89125986435431",
    "104.369192521761",
    "87.63293377930367",
    "85.3887202394357",
    "94.64081279167617",
    "97.29215984632374",
    "90.03331245662474",
    "86.22146878763175",
    "85.60828958426606",
    "82.12509265284113",
    "90.67144236492462",
    "95.6892302612101",
    "84.4864201640333",
    "98.45309189076222",
    "90.6569517142169",
    "87.16289050803681",
    "78.33130154427593",
    "104.18238665626741",
    "90.57673134836006",
    "89.19602097353066",
    "92.72743647879749",
    "83.61217000827831",
    "106.53871136831621",
    "88.79343649265472",
    "81.7717320806599",
    "85.11384300386965",
    "94.63783451938109",
    "94.63759591561664",
    "85.28331785853537",
    "103.83275567086753",
    "88.48437827685977",
    "73.02930671762628",
    "93.80306069714821",
    "78.01793748303066",
    "88.66977810033826",
    "80.40072987397424",
    "92.2152672861338",
    "92.28966619884689",
    "81.41985407882511",
    "105.27053554059012",
    "97.38503347405555",
    "85.94183493776067",
    "113.56754344268477",
    "114.82212356459283",
    "121.21958940383334",
    "113.53808038120204",
    "128.28993935896787",
    "125.37082173533936",
    "117.38645275164174",
    "126.26894927103884",
    "122.66144953451189",
    "129.36649932503207",
    "126.0734011605467",
    "127.25485752329422",
    "122.38280559870142",
    "119.60750466492965",
    "98.82689830612603",
    "133.55593288772508",
    "107.78195317702618",
    "110.37062024308845",
    "120.1860572325201",
    "114.63545503579256",
    "116.59774951484208",
    "112.13744405948957",
    "115.09066096692968",
    "131.55106155125398",
    "128.0567170093104",
    "120.76529460180382",
    "133.7701891051758",
    "117.14859021891965",
    "116.4741044703084",
    "120.90558603652913",
    "119.15004732974383",
    "123.2392663002227",
    "117.58363854487253",
    "132.45239855381834",
    "132.94103018747282",
    "115.96091993261437",
    "120.65402322450996",
    "121.93684303662268",
    "119.40150599730498",
    "121.79120322419998",
    "134.1563677714196",
    "123.04662988834926",
    "102.57485683361159",
    "116.79224193551447",
    "122.54080029000912",
    "119.12064957146603",
    "114.13472135747749",
    "124.84772490867013",
    "118.97827573584304",
    "106.0778560691313",
    "119.50618311912766",
    "122.00899991842796",
    "110.41180295662615",
    "103.5185373486436",
    "109.74144161641799",
    "102.80089039580616",
    "111.29090369485996",
    "116.60011274010857",
    "119.22149847782863",
    "118.99286693078226",
    "128.7795735960524",
    "127.1210774345119",
    "120.9758007386058",
    "131.0692728084163",
    "111.10288421324127",
    "114.0241646569715",
    "128.98220325822652",
    "123.26462964964992",
    "117.57930493768662",
    "112.82976743967377",
    "122.27936217136005",
    "114.57778871379907",
    "107.5505136118628",
    "119.55033136400563",
    "99.08916544588129",
    "124.35797422504211",
    "118.13908987964246",
    "123.35550324928451",
    "126.40421235026574",
    "104.12114279639668",
    "115.45104154964562",
    "115.71564255282192",
    "123.79599163268992",
    "121.39624242650812",
    "99.05888270394094",
    "123.85828900631971",
    "123.51001554536589",
    "118.86486069428636",
    "123.99535431755201",
    "120.80339419606162",
    "133.03188176800774",
    "135.6680376416655",
    "112.6996663311879",
    "117.93871831022146",
    "130.37904625958865",
    "105.74736322824866",
    "119.19003325559196",
    "111.89280928608214",
    "126.33636556854722",
    "107.32522045651635",
    "115.92505757426547",
    "120.11383024288997",
    "116.17141373881636",
    "116.59785385105954",
    "113.94939145582879",
    "125.31420976278274",
    "132.93074979159553",
    "141.00228030032991",
    "118.3867221582356",
    "118.44810139717049",
    "123.3765258578754",
    "119.69743261574685",
    "114.96457614880728",
    "114.37339760874902",
    "136.48284753521787",
    "117.98089430051218",
    "132.5219555145696",
    "121.42109120522011",
    "103.12941413452585",
    "125.98104616899847",
    "109.4273786233579",
    "113.2524966139074",
    "115.27691493871684",
    "122.47891400387546",
    "117.72165276812186",
    "129.28861464280655",
    "127.98742210643941",
    "118.61602599607636",
    "119.46613819165029",
    "110.1307636151127",
    "119.13177590407021",
    "130.8228351700513",
    "127.29330176294533",
    "121.9795835462835",
    "116.02954487819783",
    "118.15287558512559",
    "123.96712834721525",
    "111.57238737970675",
    "130.94206855935272",
    "128.46402681624556",
    "106.35238106663851",
    "123.24104536574863",
    "131.84974590981236",
    "121.15334894221982",
    "126.76063779388998",
    "110.01239143121309",
    "122.56362734984485",
    "127.49372366476138",
    "120.5485955966776",
    "120.95057573864824"
  ]
}